Linear Regression
…
From the diagnostics, these two models meet the model assumptions.

Try bootstrap of the model of burglary rate

## # A tibble: 500 x 5
##    term                          estimate std.error statistic   p.value
##    <chr>                            <dbl>     <dbl>     <dbl>     <dbl>
##  1 (Intercept)                   0.816     0.184        4.44  0.0000671
##  2 illicit_drugs                -0.00922   0.00255     -3.61  0.000817 
##  3 alcohol                      -0.000153  0.000726    -0.211 0.834    
##  4 marijuana                     0.00371   0.00107      3.48  0.00119  
##  5 percent_high_school_graduate -0.00770   0.00207     -3.72  0.000601 
##  6 (Intercept)                   0.548     0.151        3.64  0.000692 
##  7 illicit_drugs                -0.00494   0.00232     -2.13  0.0386   
##  8 alcohol                      -0.00109   0.000808    -1.35  0.183    
##  9 marijuana                     0.00201   0.00106      1.90  0.0633   
## 10 percent_high_school_graduate -0.00437   0.00179     -2.44  0.0189   
## # ... with 490 more rows

## # A tibble: 500 x 5
##    term                         estimate std.error statistic    p.value
##    <chr>                           <dbl>     <dbl>     <dbl>      <dbl>
##  1 (Intercept)                    9.05     4.69         1.93 0.0595    
##  2 illicit_drugs                 -0.163    0.0746      -2.18 0.0341    
##  3 alcohol                       -0.0327   0.0186      -1.76 0.0852    
##  4 marijuana                      0.0896   0.0334       2.68 0.0101    
##  5 percent_high_school_graduate  -0.0677   0.0485      -1.40 0.169     
##  6 (Intercept)                    5.81     1.09         5.31 0.00000239
##  7 illicit_drugs                 -0.0406   0.0299      -1.36 0.181     
##  8 alcohol                       -0.0175   0.00641     -2.74 0.00855   
##  9 marijuana                      0.0206   0.0132       1.57 0.124     
## 10 percent_high_school_graduate  -0.0438   0.0118      -3.73 0.000488  
## # ... with 490 more rows
…
The R-squiared and adjusted R-squared increased, and these two models still meet the model assumptions.

Try bootstrap of the model of burglary rate

## # A tibble: 500 x 5
##    term                          estimate std.error statistic     p.value
##    <chr>                            <dbl>     <dbl>     <dbl>       <dbl>
##  1 (Intercept)                   0.335     0.0717       4.67  0.0000233  
##  2 illicit_drugs                -0.00247   0.00125     -1.98  0.0534     
##  3 alcohol                      -0.00148   0.000349    -4.25  0.0000946  
##  4 marijuana                     0.000716  0.000538     1.33  0.189      
##  5 percent_high_school_graduate -0.00176   0.000788    -2.23  0.0304     
##  6 (Intercept)                   0.371     0.0607       6.12  0.000000225
##  7 illicit_drugs                 0.000257  0.00124      0.207 0.837      
##  8 alcohol                      -0.000764  0.000277    -2.76  0.00842    
##  9 marijuana                    -0.000649  0.000573    -1.13  0.264      
## 10 percent_high_school_graduate -0.00281   0.000658    -4.27  0.000102   
## # ... with 490 more rows

## # A tibble: 500 x 5
##    term                          estimate std.error statistic  p.value
##    <chr>                            <dbl>     <dbl>     <dbl>    <dbl>
##  1 (Intercept)                   4.49       1.73       2.59   0.0129  
##  2 illicit_drugs                -0.0138     0.0395    -0.349  0.729   
##  3 alcohol                      -0.0114     0.0109    -1.04   0.302   
##  4 marijuana                     0.00658    0.0171     0.385  0.702   
##  5 percent_high_school_graduate -0.0326     0.0199    -1.63   0.110   
##  6 (Intercept)                   5.84       1.36       4.28   0.000121
##  7 illicit_drugs                 0.00370    0.0271     0.136  0.892   
##  8 alcohol                      -0.0304     0.00716   -4.24   0.000138
##  9 marijuana                     0.000436   0.0127     0.0344 0.973   
## 10 percent_high_school_graduate -0.0364     0.0157    -2.32   0.0256  
## # ... with 490 more rows
